[
    {
        "img1":"/aura.jpg",
        "img2":"https://www.thisiscolossal.com/wp-content/uploads/2013/01/rom-2.jpg",
        "text1":"Aura",
        "text2":"Submergence"
    },
    {
        "img1":"/weye.jpg",
        "img2":"http://www.davidrokeby.com/borderpatrol_web.jpeg",
        "text1":"Watchful Eye",
        "text2":"Border Patrol"
    }, 
    {
        "img1":"/mythic.jpg",
        "img2":"https://www.apple.com/newsroom/images/product/os/macos/standard/apple_macos-bigsur_safari_improvedtabs_06222020_big_carousel.jpg.large.jpg",
        "text1":"Mythic Table",
        "text2":"Apple's OS Designs"
    }, 
    {
        "img1":"/mythic.jpg",
        "img2":"https://www.designwizard.com/wp-content/uploads/2019/08/1-Go-Monochrome-Geometric-Designs.jpg",
        "text1":"Mythic Table",
        "text2":"Theme of Geometric Designs"
    }
]